{
    "KPlugin": {
        "Authors": [
            {
                "Email": "mezin.alexander@gmail.com",
                "Name": "Alexander Mezin",
                "Name[ar]": "Alexander Mezin",
                "Name[az]": "Alexander Mezin",
                "Name[be]": "Alexander Mezin",
                "Name[bg]": "Alexander Mezin",
                "Name[ca@valencia]": "Alexander Mezin",
                "Name[ca]": "Alexander Mezin",
                "Name[cs]": "Alexander Mezin",
                "Name[da]": "Alexander Mezin",
                "Name[de]": "Alexander Mezin",
                "Name[en_GB]": "Alexander Mezin",
                "Name[es]": "Alexander Mezin",
                "Name[eu]": "Alexander Mezin",
                "Name[fi]": "Alexander Mezin",
                "Name[fr]": "Alexander Mezin",
                "Name[hu]": "Alexander Mezin",
                "Name[ia]": "Alexander Mezin",
                "Name[id]": "Alexander Mezin",
                "Name[is]": "Alexander Mezin",
                "Name[it]": "Alexander Mezin",
                "Name[ja]": "Alexander Mezin",
                "Name[ka]": "ალექსანდრე მეზინი",
                "Name[ko]": "Alexander Mezin",
                "Name[lt]": "Alexander Mezin",
                "Name[nl]": "Alexander Mezin",
                "Name[nn]": "Alexander Mezin",
                "Name[pl]": "Alexander Mezin",
                "Name[pt]": "Alexander Mezin",
                "Name[pt_BR]": "Alexander Mezin",
                "Name[ro]": "Alexander Mezin",
                "Name[ru]": "Александр Мезин",
                "Name[sk]": "Alexander Mezin",
                "Name[sl]": "Alexander Mezin",
                "Name[sv]": "Alexander Mezin",
                "Name[ta]": "அலெக்சாண்டர் மெஜின்",
                "Name[tr]": "Alexander Mezin",
                "Name[uk]": "Алєксандр Мєзін",
                "Name[vi]": "Alexander Mezin",
                "Name[x-test]": "xxAlexander Mezinxx",
                "Name[zh_CN]": "Alexander Mezin"
            }
        ],
        "Category": "System Information",
        "Description": "Shows current touchpad state",
        "Description[ar]": "أظهر حالة لوحة اللمس الحاليّة",
        "Description[az]": "Cari toxunma paneli vəziyyətini göstərir",
        "Description[be]": "Паказвае стан сэнсарнай панэлі",
        "Description[bg]": "Показва текущото състояние на тъчпада",
        "Description[ca@valencia]": "Mostra l'estat actual del ratolí tàctil",
        "Description[ca]": "Mostra l'estat actual del ratolí tàctil",
        "Description[cs]": "Zobrazí současný stav touchpadu",
        "Description[da]": "Vis aktuel touchpad-tilstand",
        "Description[de]": "Zeigt den aktuellen Status des Touchpads an",
        "Description[en_GB]": "Shows current touchpad state",
        "Description[es]": "Muestra el estado actual del panel táctil",
        "Description[eu]": "Ukimen-saguaren uneko egoera erakusten du",
        "Description[fi]": "Näyttää kosketuslevyn nykyisen tilan",
        "Description[fr]": "Affiche l'état courant du pavé tactile",
        "Description[hu]": "Az érintőtábla állapotának megjelenítése",
        "Description[ia]": "Monstra stato currente de pannello tactile",
        "Description[id]": "Tampilkan keadaan touchpad saat ini",
        "Description[is]": "Birtir stöðu snertiplatta",
        "Description[it]": "Mostra lo stato attuale del touchpad",
        "Description[ja]": "現在のタッチパッドの状態を表示",
        "Description[ka]": "თაჩპედის მიმდინარე მდგომარეობის ცვენება",
        "Description[ko]": "현재 터치패드 상태 표시",
        "Description[lt]": "Rodo esamą jutiklinio kilimėlio būseną",
        "Description[nl]": "Huidige status van touchpad tonen",
        "Description[nn]": "Viser gjeldande styreplatestatus",
        "Description[pa]": "ਮੌਜੂਦਾ ਟੱਚਪੈਠ ਦੀ ਹਾਲਤ ਦਿਖਾਉਂਦਾ ਹੈ",
        "Description[pl]": "Pokazuje bieżący stan gładzika",
        "Description[pt]": "Mostra o estado actual do rato por toque",
        "Description[pt_BR]": "Mostra o estado atual do touchpad",
        "Description[ro]": "Arată starea curentă a zonei tactile",
        "Description[ru]": "Показывает текущее состояние сенсорной панели",
        "Description[sk]": "Zobrazí aktuálny stav touchpadu",
        "Description[sl]": "Prikazuje trenutno stanje sledilne ploščice",
        "Description[sv]": "Visar tryckplattans nuvarande tillstånd",
        "Description[ta]": "தொடுபலகையின் தற்போதைய நிலையை காட்டும்",
        "Description[tr]": "Geçerli dokunmatik yüzey durumunu gösterir",
        "Description[uk]": "Показує поточний стан сенсорної панелі",
        "Description[vi]": "Hiện trạng thái hiện thời của bàn cảm ứng",
        "Description[x-test]": "xxShows current touchpad statexx",
        "Description[zh_CN]": "显示当前触摸板状态",
        "Icon": "input-touchpad",
        "Id": "touchpad",
        "License": "GPL-2.0+",
        "Name": "Touchpad",
        "Name[ar]": "لوحة اللمس",
        "Name[az]": "Toxunma Paneli",
        "Name[be]": "Сэнсарная панэль",
        "Name[bg]": "Тъчпад",
        "Name[ca@valencia]": "Ratolí tàctil",
        "Name[ca]": "Ratolí tàctil",
        "Name[cs]": "Touchpad",
        "Name[da]": "Touchpad",
        "Name[de]": "Touchpad",
        "Name[el]": "Επιφάνεια αφής",
        "Name[en_GB]": "Touchpad",
        "Name[es]": "Panel táctil",
        "Name[et]": "Puutepadi",
        "Name[eu]": "Ukimen-sagua",
        "Name[fi]": "Kosketuslevy",
        "Name[fr]": "Pavé tactile",
        "Name[gl]": "Área táctil",
        "Name[he]": "לוח מגע",
        "Name[hu]": "Érintőtábla",
        "Name[ia]": "Touchpad",
        "Name[id]": "Touchpad",
        "Name[is]": "Snertiplatti",
        "Name[it]": "Touchpad",
        "Name[ja]": "タッチパッド",
        "Name[ka]": "თაჩპედი",
        "Name[ko]": "터치패드",
        "Name[lt]": "Jutiklinis kilimėlis",
        "Name[nl]": "Touchpad",
        "Name[nn]": "Styre­plate",
        "Name[pa]": "ਟੱਚਪੈਡ",
        "Name[pl]": "Gładzik",
        "Name[pt]": "Rato por Toque",
        "Name[pt_BR]": "Touchpad",
        "Name[ro]": "Zonă tactilă",
        "Name[ru]": "Сенсорная панель",
        "Name[sk]": "Touchpad",
        "Name[sl]": "Sledilna ploščica",
        "Name[sr@ijekavian]": "Додирник",
        "Name[sr@ijekavianlatin]": "Dodirnik",
        "Name[sr@latin]": "Dodirnik",
        "Name[sr]": "Додирник",
        "Name[sv]": "Tryckplatta",
        "Name[ta]": "தொடுபலகை",
        "Name[tg]": "Лавҳаи ламсӣ",
        "Name[tr]": "Dokunmatik Yüzey",
        "Name[uk]": "Сенсорна панель",
        "Name[vi]": "Bàn cảm ứng",
        "Name[x-test]": "xxTouchpadxx",
        "Name[zh_CN]": "触摸板",
        "Name[zh_TW]": "觸控板",
        "ServiceTypes": [
            "Plasma/Applet"
        ],
        "Website": "https://projects.kde.org/projects/playground/utils/kcm-touchpad/"
    },
    "Keywords": "Touchpad",
    "Keywords[ast]": "Panel táctil",
    "Keywords[az]": "Toxunma Paneli",
    "Keywords[ca@valencia]": "Ratolí tàctil",
    "Keywords[ca]": "Ratolí tàctil",
    "Keywords[da]": "Touchpad",
    "Keywords[de]": "Touchpad",
    "Keywords[el]": "Επιφάνεια αφής",
    "Keywords[en_GB]": "Touchpad",
    "Keywords[es]": "Panel táctil",
    "Keywords[et]": "Puutepadi",
    "Keywords[eu]": "Ukimen-sagua",
    "Keywords[fi]": "Kosketuslevy",
    "Keywords[fr]": "Pavé tactile",
    "Keywords[gl]": "Área táctil",
    "Keywords[he]": "לוח מגע",
    "Keywords[hu]": "Érintőtábla",
    "Keywords[ia]": "Touchpad",
    "Keywords[id]": "Touchpad",
    "Keywords[is]": "Snertiplatti",
    "Keywords[it]": "Touchpad",
    "Keywords[ja]": "タッチパッド",
    "Keywords[ko]": "터치패드",
    "Keywords[lt]": "Jutiklinis kilimėlis",
    "Keywords[nl]": "Touchpad",
    "Keywords[nn]": "Styreplate",
    "Keywords[pa]": "ਟੱਚਪੈਡ",
    "Keywords[pl]": "Gładzik",
    "Keywords[pt]": "Rato por Toque",
    "Keywords[pt_BR]": "Touchpad",
    "Keywords[ro]": "Zonă tactilă",
    "Keywords[ru]": "сенсорная панель",
    "Keywords[sk]": "Touchpad",
    "Keywords[sl]": "Sledilna ploščica",
    "Keywords[sr@ijekavian]": "touchpad;додирник;",
    "Keywords[sr@ijekavianlatin]": "touchpad;dodirnik;",
    "Keywords[sr@latin]": "touchpad;dodirnik;",
    "Keywords[sr]": "touchpad;додирник;",
    "Keywords[sv]": "Tryckplatta",
    "Keywords[ta]": "தொடுபலகை, Touchpad",
    "Keywords[tg]": "Лавҳаи ламсӣ",
    "Keywords[tr]": "Dokunmatik yüzey",
    "Keywords[uk]": "Сенсорна панель",
    "Keywords[vi]": "Bàn cảm ứng",
    "Keywords[x-test]": "xxTouchpadxx",
    "Keywords[zh_CN]": "触摸板",
    "Keywords[zh_TW]": "觸控板",
    "X-Plasma-API": "declarativeappletscript",
    "X-Plasma-ConfigPlugins": [
        "kcm_touchpad"
    ],
    "X-Plasma-MainScript": "ui/touchpad.qml",
    "X-Plasma-NotificationArea": "true",
    "X-Plasma-NotificationAreaCategory": "Hardware"
}
