{
    "KPlugin": {
        "Authors": [
            {
                "Email": "sebas@kde.org",
                "Name": "Sebastian Kügler",
                "Name[ar]": "Sebastian Kügler",
                "Name[az]": "Sebastian Kügler",
                "Name[be]": "Sebastian Kügler",
                "Name[bg]": "Sebastian Kügler",
                "Name[ca@valencia]": "Sebastian Kügler",
                "Name[ca]": "Sebastian Kügler",
                "Name[cs]": "Sebastian Kügler",
                "Name[da]": "Sebastian Kügler",
                "Name[de]": "Sebastian Kügler",
                "Name[en_GB]": "Sebastian Kügler",
                "Name[es]": "Sebastian Kügler",
                "Name[eu]": "Sebastian Kügler",
                "Name[fi]": "Sebastian Kügler",
                "Name[fr]": "Sebastian Kügler",
                "Name[hu]": "Sebastian Kügler",
                "Name[ia]": "Sebastian Kügler",
                "Name[id]": "Sebastian Kügler",
                "Name[is]": "Sebastian Kügler",
                "Name[it]": "Sebastian Kügler",
                "Name[ja]": "Sebastian Kügler",
                "Name[ka]": "სებასტიან კუგლერი",
                "Name[ko]": "Sebastian Kügler",
                "Name[lt]": "Sebastian Kügler",
                "Name[nl]": "Sebastian Kügler",
                "Name[nn]": "Sebastian Kügler",
                "Name[pl]": "Sebastian Kügler",
                "Name[pt]": "Sebastian Kügler",
                "Name[pt_BR]": "Sebastian Kügler",
                "Name[ro]": "Sebastian Kügler",
                "Name[ru]": "Sebastian Kügler",
                "Name[sk]": "Sebastian Kügler",
                "Name[sl]": "Sebastian Kügler",
                "Name[sv]": "Sebastian Kügler",
                "Name[ta]": "ஸெபாஸ்டியன் கூக்லர்",
                "Name[tr]": "Sebastian Kügler",
                "Name[uk]": "Sebastian Kügler",
                "Name[vi]": "Sebastian Kügler",
                "Name[x-test]": "xxSebastian Küglerxx",
                "Name[zh_CN]": "Sebastian Kügler"
            },
            {
                "Email": "hein@kde.org",
                "Name": "Eike Hein",
                "Name[ar]": "Eike Hein",
                "Name[az]": "Eike Hein",
                "Name[be]": "Eike Hein",
                "Name[bg]": "Eike Hein",
                "Name[ca@valencia]": "Eike Hein",
                "Name[ca]": "Eike Hein",
                "Name[cs]": "Eike Hein",
                "Name[da]": "Eike Hein",
                "Name[de]": "Eike Hein",
                "Name[en_GB]": "Eike Hein",
                "Name[es]": "Eike Hein",
                "Name[eu]": "Eike Hein",
                "Name[fi]": "Eike Hein",
                "Name[fr]": "Eike Hein",
                "Name[hu]": "Eike Hein",
                "Name[ia]": "Eike Hein",
                "Name[id]": "Eike Hein",
                "Name[is]": "Eike Hein",
                "Name[it]": "Eike Hein",
                "Name[ja]": "Eike Hein",
                "Name[ka]": "აიკე ჰაინი",
                "Name[ko]": "Eike Hein",
                "Name[lt]": "Eike Hein",
                "Name[nl]": "Eike Hein",
                "Name[nn]": "Eike Hein",
                "Name[pa]": "ਇਕੀ ਹੀਇਨ",
                "Name[pl]": "Eike Hein",
                "Name[pt]": "Eike Hein",
                "Name[pt_BR]": "Eike Hein",
                "Name[ro]": "Eike Hein",
                "Name[ru]": "Eike Hein",
                "Name[sk]": "Eike Hein",
                "Name[sl]": "Eike Hein",
                "Name[sv]": "Eike Hein",
                "Name[ta]": "எய்கே ஹைன்",
                "Name[tr]": "Eike Hein",
                "Name[uk]": "Eike Hein",
                "Name[vi]": "Eike Hein",
                "Name[x-test]": "xxEike Heinxx",
                "Name[zh_CN]": "Eike Hein"
            }
        ],
        "BugReportUrl": "https://bugs.kde.org/enter_bug.cgi?product=plasmashell&component=Desktop%20Containment",
        "Category": "Containments",
        "Description": "A clean and simple layout",
        "Description[ar]": "تصميم نظيف وبسيط",
        "Description[az]": "Təmiz və Sadə şablon",
        "Description[be]": "Просты макет",
        "Description[bg]": "Едно изчистено и просто оформление",
        "Description[ca@valencia]": "Una disposició neta i senzilla",
        "Description[ca]": "Una disposició neta i senzilla",
        "Description[cs]": "Čisté a jednoduché rozvržení",
        "Description[da]": "Et rent og simpelt layout",
        "Description[de]": "Ein klares und einfaches Layout",
        "Description[en_GB]": "A clean and simple layout",
        "Description[es]": "Un esquema sencillo y claro",
        "Description[eu]": "Antolaera garbi eta xumea",
        "Description[fi]": "Selkeä ja yksinkertainen asettelu",
        "Description[fr]": "Une disposition simple et épurée",
        "Description[hu]": "Egy tiszta és egyszerű elrendezés",
        "Description[ia]": "Un disposition simple e munde",
        "Description[id]": "Sebuah tataletak yang bersih dan sederhana",
        "Description[is]": "Hreinleg og einföld framsetning",
        "Description[it]": "Una disposizione semplice e pulita",
        "Description[ja]": "クリーンでシンプルなレイアウト",
        "Description[ka]": "სუფთა და მარტივი განლაგება",
        "Description[ko]": "깨끗하고 정돈된 레이아웃",
        "Description[lt]": "Tvarkingas ir paprastas išdėstymas",
        "Description[nl]": "Een schone en simpele opmaak",
        "Description[nn]": "Ei enkel og stilrein utforming",
        "Description[pa]": "ਸਾਫ਼ ਅਤੇ ਸਧਾਰਨ ਲੇਆਉਟ",
        "Description[pl]": "Schludny i prosty układ",
        "Description[pt]": "Uma disposição limpa e simples",
        "Description[pt_BR]": "Um layout limpo e simples",
        "Description[ro]": "Aranjament curat și simplu",
        "Description[ru]": "Ясный и простой шаблон",
        "Description[sk]": "Čisté a jednoduché rozloženie",
        "Description[sl]": "Čist in preprost razpored",
        "Description[sv]": "En ren och enkel layout",
        "Description[ta]": "தெளிவான மற்றும் எளிய தளவமைப்பு",
        "Description[tr]": "Temiz ve basit bir yerleşim",
        "Description[uk]": "Просте компонування",
        "Description[vi]": "Một bố cục thoáng đãng và đơn giản",
        "Description[x-test]": "xxA clean and simple layoutxx",
        "Description[zh_CN]": "一款简洁的布局",
        "EnabledByDefault": true,
        "Icon": "user-desktop",
        "Id": "org.kde.desktopcontainment",
        "License": "GPL-2.0+",
        "Name": "Desktop",
        "Name[af]": "Werkskerm",
        "Name[ar]": "سطح المكتب",
        "Name[az]": "İş masası",
        "Name[be@latin]": "Rabočy stoł",
        "Name[be]": "Працоўны стол",
        "Name[bg]": "Работен плот",
        "Name[bn]": "ডেস্কটপ",
        "Name[bn_IN]": "ডেস্কটপ",
        "Name[br]": "Gorretaol",
        "Name[bs]": "Radna površina",
        "Name[ca@valencia]": "Escriptori",
        "Name[ca]": "Escriptori",
        "Name[cs]": "Pracovní plocha",
        "Name[csb]": "Pùlt",
        "Name[cy]": "Penbwrdd",
        "Name[da]": "Skrivebord",
        "Name[de]": "Arbeitsfläche",
        "Name[el]": "Επιφάνεια εργασίας",
        "Name[en_GB]": "Desktop",
        "Name[eo]": "Labortablo",
        "Name[es]": "Escritorio",
        "Name[et]": "Töölaud",
        "Name[eu]": "Mahaigaina",
        "Name[fa]": "رومیزی",
        "Name[fi]": "Työpöytä",
        "Name[fr]": "Bureau",
        "Name[fy]": "Buroblêd",
        "Name[ga]": "Deasc",
        "Name[gl]": "Escritorio",
        "Name[gu]": "ડેસ્કટોપ",
        "Name[he]": "שולחן עבודה",
        "Name[hi]": "डेस्कटॉप",
        "Name[hne]": "डेस्कटाप",
        "Name[hr]": "Radna površina",
        "Name[hsb]": "Dźěłowy powjerch",
        "Name[hu]": "Munkaasztal",
        "Name[ia]": "Scriptorio",
        "Name[id]": "Desktop",
        "Name[is]": "Skjáborð",
        "Name[it]": "Desktop",
        "Name[ja]": "デスクトップ",
        "Name[ka]": "სამუშაო მაგიდა",
        "Name[kk]": "Жұмыс үстелі",
        "Name[kn]": "ಗಣಕತೆರೆ",
        "Name[ko]": "바탕 화면",
        "Name[ku]": "Sermasê",
        "Name[lt]": "Darbalaukis",
        "Name[mai]": "डेस्कटाप",
        "Name[mk]": "Работна површина",
        "Name[ml]": "പണിയിടം",
        "Name[mr]": "डेस्कटॉप",
        "Name[ms]": "Ruang Kerja",
        "Name[nb]": "Skrivebord",
        "Name[nds]": "Schriefdisch",
        "Name[ne]": "डेस्कटप",
        "Name[nl]": "Bureaublad",
        "Name[nn]": "Skrivebord",
        "Name[oc]": "Burèu",
        "Name[or]": "ଡ଼େସ୍କଟପ",
        "Name[pa]": "ਡੈਸਕਟਾਪ",
        "Name[pl]": "Pulpit",
        "Name[pt]": "Ambiente de Trabalho",
        "Name[pt_BR]": "Área de trabalho",
        "Name[ro]": "Birou",
        "Name[ru]": "Рабочий стол",
        "Name[se]": "Čállinbeavdi",
        "Name[si]": "වැඩතලය",
        "Name[sk]": "Plocha",
        "Name[sl]": "Namizje",
        "Name[sr@ijekavian]": "Површ",
        "Name[sr@ijekavianlatin]": "Površ",
        "Name[sr@latin]": "Površ",
        "Name[sr]": "Површ",
        "Name[sv]": "Skrivbord",
        "Name[ta]": "பணிமேடை",
        "Name[te]": "రంగస్ఠలం",
        "Name[tg]": "Мизи корӣ",
        "Name[th]": "พื้นที่ทำงาน",
        "Name[tr]": "Masaüstü",
        "Name[uk]": "Стільниця",
        "Name[uz@cyrillic]": "Иш столи",
        "Name[uz]": "Ish stoli",
        "Name[vi]": "Bàn làm việc",
        "Name[wa]": "Sicribanne",
        "Name[x-test]": "xxDesktopxx",
        "Name[xh]": "Desktop",
        "Name[zh_CN]": "桌面",
        "Name[zh_TW]": "桌面",
        "ServiceTypes": [
            "Plasma/Applet",
            "Plasma/Containment"
        ],
        "Version": "3.0",
        "Website": "https://www.kde.org/plasma-desktop"
    },
    "X-Plasma-API": "declarativeappletscript",
    "X-Plasma-ContainmentType": "Desktop",
    "X-Plasma-MainScript": "ui/main.qml",
    "X-Plasma-RequiredExtensions": [
        "LaunchApp",
        "http",
        "localio",
        "networkio"
    ]
}
