{
    "KPlugin": {
        "BugReportUrl": "https://bugs.kde.org/enter_bug.cgi?product=systemsettings&component=kcm_kded",
        "Description": "Configure background services",
        "Description[ar]": "يضبط الخدمات الخلفيّة",
        "Description[az]": "Arxa fon xidmətini tənzimləyin",
        "Description[be]": "Наладжванне фонавых службаў",
        "Description[bg]": "Управление на услугите в заден план",
        "Description[ca@valencia]": "Configura els serveis en segon pla",
        "Description[ca]": "Configura els serveis en segon pla",
        "Description[cs]": "Nastavit služby na pozadí",
        "Description[da]": "Indstil baggrundstjenester",
        "Description[de]": "Hintergrunddienste einrichten",
        "Description[en_GB]": "Configure background services",
        "Description[es]": "Configurar los servicios en segundo plano",
        "Description[eu]": "Konfiguratu atzeko planoko zerbitzuak",
        "Description[fi]": "Taustapalveluasetukset",
        "Description[fr]": "Configurer les services d'arrière plan",
        "Description[hu]": "Háttérszolgáltatások beállítása",
        "Description[ia]": "Configura servicios de fundo",
        "Description[id]": "Konfigurasi layanan latarbelakang",
        "Description[is]": "Stilla bakgrunnsþjónustur",
        "Description[it]": "Configura i servizi in background",
        "Description[ja]": "バックグラウンドサービスを設定",
        "Description[ka]": "ფონური სერვისების მორგება",
        "Description[ko]": "배경 서비스 설정",
        "Description[lt]": "Konfigūruoti fonines tarnybas",
        "Description[nl]": "Achtergrondservices configureren",
        "Description[nn]": "Set opp bakgrunnstenester",
        "Description[pa]": "ਬੈਕਗਰਾਊਂਡ ਸੇਵਾਵਾਂ ਦੀ ਸੰਰਚਨਾ",
        "Description[pl]": "Ustawienia usług w tle",
        "Description[pt]": "Configurar os serviços de segundo plano",
        "Description[pt_BR]": "Configurar os serviços de segundo plano",
        "Description[ro]": "Configurează servicii de fundal",
        "Description[ru]": "Настройка служб KDE",
        "Description[sk]": "Nastaviť služby na pozadí",
        "Description[sl]": "Nastavi storitve v ozadju",
        "Description[sv]": "Anpassa bakgrundstjänster",
        "Description[ta]": "பின்னணி சேவைகளை அமையுங்கள்",
        "Description[tr]": "Arka plan hizmetlerini yapılandır",
        "Description[uk]": "Налаштування фонових служб",
        "Description[vi]": "Cấu hình các dịch vụ nền",
        "Description[x-test]": "xxConfigure background servicesxx",
        "Description[zh_CN]": "配置后台服务",
        "Icon": "preferences-system-session-services",
        "Name": "Background Services",
        "Name[ar]": "خدمات الخلفيّة",
        "Name[az]": "Arxa fon xidməti",
        "Name[be]": "Фонавыя службы",
        "Name[bg]": "Услуги в заден план",
        "Name[bs]": "Pozadinski servisi",
        "Name[ca@valencia]": "Serveis en segon pla",
        "Name[ca]": "Serveis en segon pla",
        "Name[cs]": "Služby na pozadí",
        "Name[da]": "Baggrundstjenester",
        "Name[de]": "Hintergrunddienste",
        "Name[el]": "Υπηρεσίες παρασκηνίου",
        "Name[en_GB]": "Background Services",
        "Name[es]": "Servicios en segundo plano",
        "Name[et]": "Taustateenused",
        "Name[eu]": "Atzeko planoko zerbitzuak",
        "Name[fi]": "Taustapalvelut",
        "Name[fr]": "Services d'arrière plan",
        "Name[gl]": "Servizos en segundo plano",
        "Name[he]": "שירותי רקע",
        "Name[hu]": "Háttérszolgáltatások",
        "Name[ia]": "Servicios de fundo (in background)",
        "Name[id]": "Layanan Latarbelakang",
        "Name[is]": "Bakgrunnsþjónustur",
        "Name[it]": "Servizi in background",
        "Name[ja]": "バックグラウンドサービス",
        "Name[ka]": "ფონური სერვისები",
        "Name[ko]": "배경 서비스",
        "Name[lt]": "Foninės tarnybos",
        "Name[nb]": "Bakgrunnstjenester",
        "Name[nds]": "Achtergrunddeensten",
        "Name[nl]": "Achtergrondservices",
        "Name[nn]": "Bakgrunns­tenester",
        "Name[pa]": "ਬੈਕਗਰਾਊਂਡ ਸੇਵਾਵਾਂ",
        "Name[pl]": "Usługi w tle",
        "Name[pt]": "Serviços de Segundo Plano",
        "Name[pt_BR]": "Serviços de segundo plano",
        "Name[ro]": "Servicii de fundal",
        "Name[ru]": "Управление службами",
        "Name[sk]": "Služby pozadia",
        "Name[sl]": "Storitve v ozadju",
        "Name[sr@ijekavian]": "Позадински сервиси",
        "Name[sr@ijekavianlatin]": "Pozadinski servisi",
        "Name[sr@latin]": "Pozadinski servisi",
        "Name[sr]": "Позадински сервиси",
        "Name[sv]": "Bakgrundstjänster",
        "Name[ta]": "பின்னணி சேவைகள்",
        "Name[tr]": "Arka Plan Hizmetleri",
        "Name[uk]": "Фонові служби",
        "Name[vi]": "Dịch vụ nền",
        "Name[x-test]": "xxBackground Servicesxx",
        "Name[zh_CN]": "后台服务",
        "Name[zh_TW]": "背景服務"
    },
    "X-DocPath": "kcontrol/kded/index.html",
    "X-KDE-Keywords": "KDED,daemon,services,background,ram",
    "X-KDE-Keywords[az]": "KDED,daemon,services,background,ram,xidmətlər,arxa fon",
    "X-KDE-Keywords[ca]": "KDED,dimoni,serveis,segon pla,ram",
    "X-KDE-Keywords[cs]": "KDED,démon,služby, pozadí,paměť",
    "X-KDE-Keywords[en_GB]": "KDED,daemon,services,background,ram",
    "X-KDE-Keywords[es]": "KDED,demonio,servicios,segundo plano,ram,memoria",
    "X-KDE-Keywords[eu]": "KDED,daimona,zerbitzuak,hondoa,atzeko-planoa,ram",
    "X-KDE-Keywords[fi]": "KDED,palvelu,demoni,tausta,muisti,ram",
    "X-KDE-Keywords[fr]": "KDED, démon, services, arrière-plan, ram",
    "X-KDE-Keywords[hu]": "KDED,démon,szolgáltatások,háttér,ram",
    "X-KDE-Keywords[ia]": "KDED,Daemon,servicios,fundo,ram",
    "X-KDE-Keywords[it]": "KDED,demone,servizi,background,ram",
    "X-KDE-Keywords[ko]": "KDED,daemon,services,background,ram,데몬,서비스,배경,백그라운드",
    "X-KDE-Keywords[nl]": "KDED,daemon,services,achtergrond,ram",
    "X-KDE-Keywords[nn]": "KDED,daemon,tenester,bakgrunn,ram,minne",
    "X-KDE-Keywords[pa]": "ਕੇਡੀਈਡੀ,ਡੈਮਨ,ਸਰਵਿਸਾਂ,ਸੇਵਾਵਾਂ,ਬੈਕਗਰਾਊਂਡ,ਰੈਮ",
    "X-KDE-Keywords[pl]": "KDED,demon,usługi,tło,ram",
    "X-KDE-Keywords[pt]": "KDED,servidor,serviços,segundo plano,RAM",
    "X-KDE-Keywords[pt_BR]": "KDED,daemon,serviços,segundo plano,ram",
    "X-KDE-Keywords[ru]": "KDED,daemon,services,background,ram,фоновая служба,демон,служба,память",
    "X-KDE-Keywords[sk]": "KDED,démon,služby,pozadie,ram",
    "X-KDE-Keywords[sl]": "KDED,ozadnji program,storitve,ram",
    "X-KDE-Keywords[sv]": "KDED,demon,tjänster,bakgrund,minne",
    "X-KDE-Keywords[ta]": "KDED,daemon,services,background,ram, சேவைகள்,பின்னணி சேவை, சேவை, நினைவு, ராம், பின்னணி",
    "X-KDE-Keywords[tr]": "KDED,artalan işlemi,servisler,arkaplan,ram",
    "X-KDE-Keywords[uk]": "KDED,daemon,services,background,ram,служба,служби,фонова служба,фонові служби,тло,супровід,оперативна пам'ять",
    "X-KDE-Keywords[vi]": "KDED,daemon,services,background,ram,trình nền,dịch vụ,nền",
    "X-KDE-Keywords[x-test]": "xxKDEDxx,xxdaemonxx,xxservicesxx,xxbackgroundxx,xxramxx",
    "X-KDE-Keywords[zh_CN]": "KDED,daemon,services,background,ram,守护进程,服务,后台,内存",
    "X-KDE-System-Settings-Parent-Category": "session",
    "X-KDE-Weight": 50
}
